{
  "cycle": [
    {
      "id": 0,
      "hotelId": 0,
      "month": 1,
      "year": 2020,
      "cycle": [
        [
          99,
          119,
          15,
          10,
          15,
          25,
          30,
          21,
          -20,
          21,
          80,
          10,
          70,
          0,
          60,
          10,
          10,
          20,
          10,
          0,
          0,
          0
        ],
        [
          99,
          119,
          15,
          10,
          15,
          25,
          30,
          21,
          -20,
          21,
          80,
          10,
          70,
          0,
          60,
          10,
          10,
          20,
          10,
          0,
          0,
          0
        ],
        [
          99,
          119,
          15,
          10,
          15,
          25,
          30,
          21,
          -20,
          21,
          80,
          10,
          70,
          0,
          60,
          10,
          10,
          20,
          10,
          0,
          0,
          0
        ],
        [
          99,
          119,
          15,
          10,
          15,
          25,
          30,
          21,
          -20,
          21,
          80,
          10,
          70,
          0,
          60,
          10,
          10,
          20,
          10,
          0,
          0,
          0
        ],
        [
          99,
          119,
          15,
          10,
          15,
          25,
          30,
          21,
          -20,
          21,
          80,
          10,
          70,
          0,
          60,
          10,
          10,
          20,
          10,
          0,
          0,
          0
        ],
        [
          99,
          119,
          15,
          10,
          15,
          25,
          30,
          21,
          -20,
          21,
          80,
          10,
          70,
          0,
          60,
          10,
          10,
          20,
          10,
          0,
          0,
          0
        ],
        [
          99,
          119,
          15,
          10,
          15,
          25,
          30,
          21,
          -20,
          21,
          80,
          10,
          70,
          0,
          60,
          10,
          10,
          20,
          10,
          0,
          0,
          0
        ],
        [
          99,
          119,
          15,
          10,
          15,
          25,
          30,
          21,
          -20,
          21,
          80,
          10,
          70,
          0,
          60,
          10,
          10,
          20,
          10,
          0,
          0,
          0
        ],
        [
          99,
          119,
          15,
          10,
          15,
          25,
          30,
          21,
          -20,
          21,
          80,
          10,
          70,
          0,
          60,
          10,
          10,
          20,
          10,
          0,
          0,
          0
        ],
        [
          99,
          119,
          15,
          10,
          15,
          25,
          30,
          21,
          -20,
          21,
          80,
          10,
          70,
          0,
          60,
          10,
          10,
          20,
          10,
          0,
          0,
          0
        ],
        [
          99,
          119,
          15,
          10,
          15,
          25,
          30,
          21,
          -20,
          21,
          80,
          26,
          54,
          0,
          60,
          26,
          -6,
          20,
          10,
          0,
          0,
          0
        ],
        [
          99,
          119,
          15,
          10,
          15,
          25,
          30,
          21,
          -20,
          21,
          80,
          26,
          54,
          0,
          60,
          26,
          -6,
          20,
          10,
          0,
          0,
          0
        ],
        [
          99,
          119,
          15,
          10,
          15,
          25,
          30,
          21,
          -20,
          21,
          80,
          26,
          54,
          0,
          60,
          26,
          -6,
          20,
          10,
          0,
          0,
          0
        ],
        [
          99,
          119,
          15,
          10,
          15,
          25,
          30,
          21,
          -20,
          21,
          80,
          26,
          54,
          0,
          60,
          26,
          -6,
          20,
          10,
          0,
          0,
          0
        ],
        [
          99,
          119,
          15,
          10,
          15,
          25,
          30,
          21,
          -20,
          21,
          80,
          26,
          54,
          0,
          60,
          26,
          -6,
          20,
          10,
          0,
          0,
          0
        ],
        [
          99,
          119,
          15,
          10,
          15,
          25,
          30,
          21,
          -20,
          21,
          80,
          26,
          54,
          0,
          60,
          26,
          -6,
          20,
          10,
          0,
          0,
          0
        ],
        [
          99,
          119,
          15,
          10,
          15,
          25,
          30,
          21,
          -20,
          21,
          80,
          26,
          54,
          0,
          60,
          26,
          -6,
          20,
          10,
          0,
          0,
          0
        ],
        [
          99,
          119,
          15,
          10,
          15,
          25,
          30,
          21,
          -20,
          21,
          80,
          26,
          54,
          0,
          60,
          26,
          -6,
          20,
          10,
          0,
          0,
          0
        ],
        [
          99,
          119,
          15,
          10,
          15,
          25,
          30,
          21,
          -20,
          21,
          80,
          26,
          54,
          0,
          60,
          26,
          -6,
          20,
          10,
          0,
          0,
          0
        ],
        [
          99,
          119,
          15,
          10,
          15,
          25,
          30,
          21,
          -20,
          21,
          80,
          26,
          54,
          0,
          60,
          26,
          -6,
          20,
          10,
          0,
          0,
          0
        ],
        [
          99,
          119,
          15,
          10,
          15,
          25,
          30,
          21,
          -20,
          21,
          80,
          10,
          70,
          0,
          60,
          10,
          10,
          20,
          10,
          0,
          0,
          0
        ],
        [
          99,
          119,
          15,
          10,
          15,
          25,
          30,
          21,
          -20,
          21,
          80,
          10,
          70,
          0,
          60,
          10,
          10,
          20,
          10,
          0,
          0,
          0
        ],
        [
          99,
          119,
          15,
          10,
          15,
          25,
          30,
          21,
          -20,
          21,
          80,
          10,
          70,
          0,
          60,
          10,
          10,
          20,
          10,
          0,
          0,
          0
        ],
        [
          99,
          119,
          15,
          10,
          15,
          25,
          30,
          21,
          -20,
          21,
          80,
          10,
          70,
          0,
          60,
          10,
          10,
          20,
          10,
          0,
          0,
          0
        ],
        [
          99,
          119,
          15,
          10,
          15,
          25,
          30,
          21,
          -20,
          21,
          80,
          10,
          70,
          0,
          60,
          10,
          10,
          20,
          10,
          0,
          0,
          0
        ],
        [
          99,
          119,
          15,
          10,
          15,
          25,
          30,
          21,
          -20,
          21,
          80,
          10,
          70,
          0,
          60,
          10,
          10,
          20,
          10,
          0,
          0,
          0
        ],
        [
          99,
          119,
          15,
          10,
          15,
          25,
          30,
          21,
          -20,
          21,
          80,
          10,
          70,
          0,
          60,
          10,
          10,
          20,
          10,
          0,
          0,
          0
        ],
        [
          99,
          119,
          15,
          10,
          15,
          25,
          30,
          21,
          -20,
          21,
          80,
          10,
          70,
          0,
          60,
          10,
          10,
          20,
          10,
          0,
          0,
          0
        ],
        [
          99,
          119,
          15,
          10,
          15,
          25,
          30,
          21,
          -20,
          21,
          80,
          10,
          70,
          0,
          60,
          10,
          10,
          20,
          10,
          0,
          0,
          0
        ],
        [
          99,
          119,
          15,
          10,
          15,
          25,
          30,
          21,
          -20,
          21,
          80,
          10,
          70,
          0,
          60,
          10,
          10,
          20,
          10,
          0,
          0,
          0
        ]
      ]
    },
    {
      "id": 1,
      "hotelId": 0,
      "month": 2,
      "year": 2020,
      "cycle": [
        [
          100,
          110,
          5,
          33,
          68,
          99,
          12,
          12,
          12,
          12,
          80,
          0,
          80,
          0,
          60,
          0,
          20,
          12,
          12,
          12,
          12,
          12
        ],
        [
          100,
          110,
          5,
          33,
          68,
          99,
          12,
          12,
          12,
          12,
          80,
          2,
          78,
          2,
          58,
          0,
          20,
          12,
          12,
          12,
          12,
          12
        ],
        [
          100,
          110,
          5,
          33,
          68,
          99,
          12,
          12,
          12,
          12,
          80,
          2,
          78,
          2,
          58,
          0,
          20,
          12,
          12,
          12,
          12,
          12
        ],
        [
          100,
          110,
          5,
          33,
          68,
          99,
          12,
          12,
          12,
          12,
          80,
          2,
          78,
          2,
          58,
          0,
          20,
          12,
          12,
          12,
          12,
          12
        ],
        [
          100,
          110,
          5,
          33,
          68,
          99,
          12,
          12,
          12,
          12,
          80,
          2,
          78,
          2,
          58,
          0,
          20,
          12,
          12,
          12,
          12,
          12
        ],
        [
          100,
          110,
          5,
          33,
          68,
          99,
          12,
          12,
          12,
          12,
          80,
          0,
          80,
          0,
          60,
          0,
          20,
          12,
          12,
          12,
          12,
          12
        ],
        [
          100,
          110,
          5,
          33,
          68,
          99,
          12,
          12,
          12,
          12,
          80,
          0,
          80,
          0,
          60,
          0,
          20,
          12,
          12,
          12,
          12,
          12
        ],
        [
          100,
          110,
          5,
          33,
          68,
          99,
          12,
          12,
          12,
          12,
          80,
          0,
          80,
          0,
          60,
          0,
          20,
          12,
          12,
          12,
          12,
          12
        ],
        [
          100,
          110,
          5,
          33,
          68,
          99,
          12,
          12,
          12,
          12,
          80,
          0,
          80,
          0,
          60,
          0,
          20,
          12,
          12,
          12,
          12,
          12
        ],
        [
          100,
          110,
          5,
          33,
          68,
          99,
          12,
          12,
          12,
          12,
          80,
          0,
          80,
          0,
          60,
          0,
          20,
          12,
          12,
          12,
          12,
          12
        ],
        [
          100,
          110,
          5,
          33,
          68,
          99,
          12,
          12,
          12,
          12,
          80,
          0,
          80,
          0,
          60,
          0,
          20,
          12,
          12,
          12,
          12,
          12
        ],
        [
          100,
          110,
          5,
          33,
          68,
          99,
          12,
          12,
          12,
          12,
          80,
          0,
          80,
          0,
          60,
          0,
          20,
          12,
          12,
          12,
          12,
          12
        ],
        [
          100,
          110,
          5,
          33,
          68,
          99,
          12,
          12,
          12,
          12,
          80,
          0,
          80,
          0,
          60,
          0,
          20,
          12,
          12,
          12,
          12,
          12
        ],
        [
          100,
          110,
          5,
          33,
          68,
          99,
          12,
          12,
          12,
          12,
          80,
          0,
          80,
          0,
          60,
          0,
          20,
          12,
          12,
          12,
          12,
          12
        ],
        [
          100,
          110,
          5,
          33,
          68,
          99,
          12,
          12,
          12,
          12,
          80,
          0,
          80,
          0,
          60,
          0,
          20,
          12,
          12,
          12,
          12,
          12
        ],
        [
          100,
          110,
          5,
          33,
          68,
          99,
          12,
          12,
          12,
          12,
          80,
          0,
          80,
          0,
          60,
          0,
          20,
          12,
          12,
          12,
          12,
          12
        ],
        [
          100,
          110,
          5,
          33,
          68,
          99,
          12,
          12,
          12,
          12,
          80,
          0,
          80,
          0,
          60,
          0,
          20,
          12,
          12,
          12,
          12,
          12
        ],
        [
          100,
          110,
          5,
          33,
          68,
          99,
          12,
          12,
          12,
          12,
          80,
          0,
          80,
          0,
          60,
          0,
          20,
          12,
          12,
          12,
          12,
          12
        ],
        [
          100,
          110,
          5,
          33,
          68,
          99,
          12,
          12,
          12,
          12,
          80,
          0,
          80,
          0,
          60,
          0,
          20,
          12,
          12,
          12,
          12,
          12
        ],
        [
          100,
          110,
          5,
          33,
          68,
          99,
          12,
          12,
          12,
          12,
          80,
          0,
          80,
          0,
          60,
          0,
          20,
          12,
          12,
          12,
          12,
          12
        ],
        [
          100,
          110,
          5,
          33,
          68,
          99,
          12,
          12,
          12,
          12,
          80,
          0,
          80,
          0,
          60,
          0,
          20,
          12,
          12,
          12,
          12,
          12
        ],
        [
          100,
          110,
          5,
          33,
          68,
          99,
          12,
          12,
          12,
          12,
          80,
          0,
          80,
          0,
          60,
          0,
          20,
          12,
          12,
          12,
          12,
          12
        ],
        [
          100,
          110,
          5,
          33,
          68,
          99,
          12,
          12,
          12,
          12,
          80,
          0,
          80,
          0,
          60,
          0,
          20,
          12,
          12,
          12,
          12,
          12
        ],
        [
          100,
          110,
          5,
          33,
          68,
          99,
          12,
          12,
          12,
          12,
          80,
          0,
          80,
          0,
          60,
          0,
          20,
          12,
          12,
          12,
          12,
          12
        ],
        [
          100,
          110,
          5,
          33,
          68,
          99,
          12,
          12,
          12,
          12,
          80,
          0,
          80,
          0,
          60,
          0,
          20,
          12,
          12,
          12,
          12,
          12
        ],
        [
          100,
          110,
          5,
          33,
          68,
          99,
          12,
          12,
          12,
          12,
          80,
          0,
          80,
          0,
          60,
          0,
          20,
          12,
          12,
          12,
          12,
          12
        ],
        [
          100,
          110,
          5,
          33,
          68,
          99,
          12,
          12,
          12,
          12,
          80,
          6,
          74,
          0,
          60,
          6,
          14,
          12,
          12,
          12,
          12,
          12
        ],
        [
          100,
          110,
          5,
          33,
          68,
          99,
          12,
          12,
          12,
          12,
          80,
          6,
          74,
          0,
          60,
          6,
          14,
          12,
          12,
          12,
          12,
          12
        ],
        [
          100,
          110,
          5,
          33,
          68,
          99,
          12,
          12,
          12,
          12,
          80,
          6,
          74,
          0,
          60,
          6,
          14,
          12,
          12,
          12,
          12,
          12
        ],
        [
          100,
          110,
          5,
          33,
          68,
          99,
          12,
          12,
          12,
          12,
          80,
          6,
          74,
          0,
          60,
          6,
          14,
          12,
          12,
          12,
          12,
          12
        ]
      ]
    },
    {
      "id": 2,
      "hotelId": 0,
      "month": 3,
      "year": 2020,
      "cycle": [
        [
          99,
          119,
          15,
          10,
          15,
          25,
          30,
          21,
          -20,
          21,
          80,
          3,
          77,
          0,
          60,
          3,
          17,
          20,
          10,
          0,
          0,
          0
        ],
        [
          99,
          119,
          15,
          10,
          15,
          25,
          30,
          21,
          -20,
          21,
          80,
          3,
          77,
          0,
          60,
          3,
          17,
          20,
          10,
          0,
          0,
          0
        ],
        [
          99,
          119,
          15,
          10,
          15,
          25,
          30,
          21,
          -20,
          21,
          80,
          3,
          77,
          0,
          60,
          3,
          17,
          20,
          10,
          0,
          0,
          0
        ],
        [
          99,
          119,
          15,
          10,
          15,
          25,
          30,
          21,
          -20,
          21,
          80,
          3,
          77,
          0,
          60,
          3,
          17,
          20,
          10,
          0,
          0,
          0
        ],
        [
          99,
          119,
          15,
          10,
          15,
          25,
          30,
          21,
          -20,
          21,
          80,
          3,
          77,
          0,
          60,
          3,
          17,
          20,
          10,
          0,
          0,
          0
        ],
        [
          99,
          119,
          15,
          10,
          15,
          25,
          30,
          21,
          -20,
          21,
          80,
          3,
          77,
          0,
          60,
          3,
          17,
          20,
          10,
          0,
          0,
          0
        ],
        [
          99,
          119,
          15,
          10,
          15,
          25,
          30,
          21,
          -20,
          21,
          80,
          0,
          80,
          0,
          60,
          0,
          20,
          20,
          10,
          0,
          0,
          0
        ],
        [
          99,
          119,
          15,
          10,
          15,
          25,
          30,
          21,
          -20,
          21,
          80,
          0,
          80,
          0,
          60,
          0,
          20,
          20,
          10,
          0,
          0,
          0
        ],
        [
          99,
          119,
          15,
          10,
          15,
          25,
          30,
          21,
          -20,
          21,
          80,
          0,
          80,
          0,
          60,
          0,
          20,
          20,
          10,
          0,
          0,
          0
        ],
        [
          99,
          119,
          15,
          10,
          15,
          25,
          30,
          21,
          -20,
          21,
          80,
          0,
          80,
          0,
          60,
          0,
          20,
          20,
          10,
          0,
          0,
          0
        ],
        [
          99,
          119,
          15,
          10,
          15,
          25,
          30,
          21,
          -20,
          21,
          80,
          0,
          80,
          0,
          60,
          0,
          20,
          20,
          10,
          0,
          0,
          0
        ],
        [
          99,
          119,
          15,
          10,
          15,
          25,
          30,
          21,
          -20,
          21,
          80,
          0,
          80,
          0,
          60,
          0,
          20,
          20,
          10,
          0,
          0,
          0
        ],
        [
          99,
          119,
          15,
          10,
          15,
          25,
          30,
          21,
          -20,
          21,
          80,
          0,
          80,
          0,
          60,
          0,
          20,
          20,
          10,
          0,
          0,
          0
        ],
        [
          99,
          119,
          15,
          10,
          15,
          25,
          30,
          21,
          -20,
          21,
          80,
          0,
          80,
          0,
          60,
          0,
          20,
          20,
          10,
          0,
          0,
          0
        ],
        [
          99,
          119,
          15,
          10,
          15,
          25,
          30,
          21,
          -20,
          21,
          80,
          0,
          80,
          0,
          60,
          0,
          20,
          20,
          10,
          0,
          0,
          0
        ],
        [
          99,
          119,
          15,
          10,
          15,
          25,
          30,
          21,
          -20,
          21,
          80,
          0,
          80,
          0,
          60,
          0,
          20,
          20,
          10,
          0,
          0,
          0
        ],
        [
          99,
          119,
          15,
          10,
          15,
          25,
          30,
          21,
          -20,
          21,
          80,
          0,
          80,
          0,
          60,
          0,
          20,
          20,
          10,
          0,
          0,
          0
        ],
        [
          99,
          119,
          15,
          10,
          15,
          25,
          30,
          21,
          -20,
          21,
          80,
          0,
          80,
          0,
          60,
          0,
          20,
          20,
          10,
          0,
          0,
          0
        ],
        [
          99,
          119,
          15,
          10,
          15,
          25,
          30,
          21,
          -20,
          21,
          80,
          0,
          80,
          0,
          60,
          0,
          20,
          20,
          10,
          0,
          0,
          0
        ],
        [
          99,
          119,
          15,
          10,
          15,
          25,
          30,
          21,
          -20,
          21,
          80,
          0,
          80,
          0,
          60,
          0,
          20,
          20,
          10,
          0,
          0,
          0
        ],
        [
          99,
          119,
          15,
          10,
          15,
          25,
          30,
          21,
          -20,
          21,
          80,
          0,
          80,
          0,
          60,
          0,
          20,
          20,
          10,
          0,
          0,
          0
        ],
        [
          99,
          119,
          15,
          10,
          15,
          25,
          30,
          21,
          -20,
          21,
          80,
          0,
          80,
          0,
          60,
          0,
          20,
          20,
          10,
          0,
          0,
          0
        ],
        [
          99,
          119,
          15,
          10,
          15,
          25,
          30,
          21,
          -20,
          21,
          80,
          0,
          80,
          0,
          60,
          0,
          20,
          20,
          10,
          0,
          0,
          0
        ],
        [
          99,
          119,
          15,
          10,
          15,
          25,
          30,
          21,
          -20,
          21,
          80,
          0,
          80,
          0,
          60,
          0,
          20,
          20,
          10,
          0,
          0,
          0
        ],
        [
          99,
          119,
          15,
          10,
          15,
          25,
          30,
          21,
          -20,
          21,
          80,
          0,
          80,
          0,
          60,
          0,
          20,
          20,
          10,
          0,
          0,
          0
        ],
        [
          99,
          119,
          15,
          10,
          15,
          25,
          30,
          21,
          -20,
          21,
          80,
          0,
          80,
          0,
          60,
          0,
          20,
          20,
          10,
          0,
          0,
          0
        ],
        [
          99,
          119,
          15,
          10,
          15,
          25,
          30,
          21,
          -20,
          21,
          80,
          0,
          80,
          0,
          60,
          0,
          20,
          20,
          10,
          0,
          0,
          0
        ],
        [
          99,
          119,
          15,
          10,
          15,
          25,
          30,
          21,
          -20,
          21,
          80,
          0,
          80,
          0,
          60,
          0,
          20,
          20,
          10,
          0,
          0,
          0
        ],
        [
          99,
          119,
          15,
          10,
          15,
          25,
          30,
          21,
          -20,
          21,
          80,
          0,
          80,
          0,
          60,
          0,
          20,
          20,
          10,
          0,
          0,
          0
        ],
        [
          99,
          119,
          15,
          10,
          15,
          25,
          30,
          21,
          -20,
          21,
          80,
          0,
          80,
          0,
          60,
          0,
          20,
          20,
          10,
          0,
          0,
          0
        ]
      ]
    },
    {
      "id": 3,
      "hotelId": 1,
      "month": 1,
      "year": 2020,
      "cycle": [
        [
          99,
          119,
          15,
          10,
          15,
          25,
          30,
          21,
          -20,
          21,
          80,
          0,
          80,
          0,
          60,
          0,
          20,
          20,
          10,
          0,
          0,
          0
        ],
        [
          99,
          119,
          15,
          10,
          15,
          25,
          30,
          21,
          -20,
          21,
          80,
          0,
          80,
          0,
          60,
          0,
          20,
          20,
          10,
          0,
          0,
          0
        ],
        [
          99,
          119,
          15,
          10,
          15,
          25,
          30,
          21,
          -20,
          21,
          80,
          0,
          80,
          0,
          60,
          0,
          20,
          20,
          10,
          0,
          0,
          0
        ],
        [
          99,
          119,
          15,
          10,
          15,
          25,
          30,
          21,
          -20,
          21,
          80,
          0,
          80,
          0,
          60,
          0,
          20,
          20,
          10,
          0,
          0,
          0
        ],
        [
          99,
          119,
          15,
          10,
          15,
          25,
          30,
          21,
          -20,
          21,
          80,
          0,
          80,
          0,
          60,
          0,
          20,
          20,
          10,
          0,
          0,
          0
        ],
        [
          99,
          119,
          15,
          10,
          15,
          25,
          30,
          21,
          -20,
          21,
          80,
          0,
          80,
          0,
          60,
          0,
          20,
          20,
          10,
          0,
          0,
          0
        ],
        [
          99,
          119,
          15,
          10,
          15,
          25,
          30,
          21,
          -20,
          21,
          80,
          0,
          80,
          0,
          60,
          0,
          20,
          20,
          10,
          0,
          0,
          0
        ],
        [
          99,
          119,
          15,
          10,
          15,
          25,
          30,
          21,
          -20,
          21,
          80,
          0,
          80,
          0,
          60,
          0,
          20,
          20,
          10,
          0,
          0,
          0
        ],
        [
          99,
          119,
          15,
          10,
          15,
          25,
          30,
          21,
          -20,
          21,
          80,
          0,
          80,
          0,
          60,
          0,
          20,
          20,
          10,
          0,
          0,
          0
        ],
        [
          99,
          119,
          15,
          10,
          15,
          25,
          30,
          21,
          -20,
          21,
          80,
          0,
          80,
          0,
          60,
          0,
          20,
          20,
          10,
          0,
          0,
          0
        ],
        [
          99,
          119,
          15,
          10,
          15,
          25,
          30,
          21,
          -20,
          21,
          80,
          0,
          80,
          0,
          60,
          0,
          20,
          20,
          10,
          0,
          0,
          0
        ],
        [
          99,
          119,
          15,
          10,
          15,
          25,
          30,
          21,
          -20,
          21,
          80,
          0,
          80,
          0,
          60,
          0,
          20,
          20,
          10,
          0,
          0,
          0
        ],
        [
          99,
          119,
          15,
          10,
          15,
          25,
          30,
          21,
          -20,
          21,
          80,
          0,
          80,
          0,
          60,
          0,
          20,
          20,
          10,
          0,
          0,
          0
        ],
        [
          99,
          119,
          15,
          10,
          15,
          25,
          30,
          21,
          -20,
          21,
          80,
          0,
          80,
          0,
          60,
          0,
          20,
          20,
          10,
          0,
          0,
          0
        ],
        [
          99,
          119,
          15,
          10,
          15,
          25,
          30,
          21,
          -20,
          21,
          80,
          0,
          80,
          0,
          60,
          0,
          20,
          20,
          10,
          0,
          0,
          0
        ],
        [
          99,
          119,
          15,
          10,
          15,
          25,
          30,
          21,
          -20,
          21,
          80,
          0,
          80,
          0,
          60,
          0,
          20,
          20,
          10,
          0,
          0,
          0
        ],
        [
          99,
          119,
          15,
          10,
          15,
          25,
          30,
          21,
          -20,
          21,
          80,
          0,
          80,
          0,
          60,
          0,
          20,
          20,
          10,
          0,
          0,
          0
        ],
        [
          99,
          119,
          15,
          10,
          15,
          25,
          30,
          21,
          -20,
          21,
          80,
          0,
          80,
          0,
          60,
          0,
          20,
          20,
          10,
          0,
          0,
          0
        ],
        [
          99,
          119,
          15,
          10,
          15,
          25,
          30,
          21,
          -20,
          21,
          80,
          0,
          80,
          0,
          60,
          0,
          20,
          20,
          10,
          0,
          0,
          0
        ],
        [
          99,
          119,
          15,
          10,
          15,
          25,
          30,
          21,
          -20,
          21,
          80,
          0,
          80,
          0,
          60,
          0,
          20,
          20,
          10,
          0,
          0,
          0
        ],
        [
          99,
          119,
          15,
          10,
          15,
          25,
          30,
          21,
          -20,
          21,
          80,
          0,
          80,
          0,
          60,
          0,
          20,
          20,
          10,
          0,
          0,
          0
        ],
        [
          99,
          119,
          15,
          10,
          15,
          25,
          30,
          21,
          -20,
          21,
          80,
          0,
          80,
          0,
          60,
          0,
          20,
          20,
          10,
          0,
          0,
          0
        ],
        [
          99,
          119,
          15,
          10,
          15,
          25,
          30,
          21,
          -20,
          21,
          80,
          0,
          80,
          0,
          60,
          0,
          20,
          20,
          10,
          0,
          0,
          0
        ],
        [
          99,
          119,
          15,
          10,
          15,
          25,
          30,
          21,
          -20,
          21,
          80,
          0,
          80,
          0,
          60,
          0,
          20,
          20,
          10,
          0,
          0,
          0
        ],
        [
          99,
          119,
          15,
          10,
          15,
          25,
          30,
          21,
          -20,
          21,
          80,
          0,
          80,
          0,
          60,
          0,
          20,
          20,
          10,
          0,
          0,
          0
        ],
        [
          99,
          119,
          15,
          10,
          15,
          25,
          30,
          21,
          -20,
          21,
          80,
          0,
          80,
          0,
          60,
          0,
          20,
          20,
          10,
          0,
          0,
          0
        ],
        [
          99,
          119,
          15,
          10,
          15,
          25,
          30,
          21,
          -20,
          21,
          80,
          0,
          80,
          0,
          60,
          0,
          20,
          20,
          10,
          0,
          0,
          0
        ],
        [
          99,
          119,
          15,
          10,
          15,
          25,
          30,
          21,
          -20,
          21,
          80,
          0,
          80,
          0,
          60,
          0,
          20,
          20,
          10,
          0,
          0,
          0
        ],
        [
          99,
          119,
          15,
          10,
          15,
          25,
          30,
          21,
          -20,
          21,
          80,
          0,
          80,
          0,
          60,
          0,
          20,
          20,
          10,
          0,
          0,
          0
        ],
        [
          99,
          119,
          15,
          10,
          15,
          25,
          30,
          21,
          -20,
          21,
          80,
          0,
          80,
          0,
          60,
          0,
          20,
          20,
          10,
          0,
          0,
          0
        ]
      ]
    },
    {
      "id": 4,
      "hotelId": 1,
      "month": 11,
      "year": 2020,
      "cycle": [
        [
          99,
          119,
          15,
          10,
          15,
          25,
          30,
          21,
          -20,
          21,
          80,
          0,
          80,
          0,
          60,
          0,
          20,
          20,
          10,
          0,
          0,
          0
        ],
        [
          99,
          119,
          15,
          10,
          15,
          25,
          30,
          21,
          -20,
          21,
          80,
          0,
          80,
          0,
          60,
          0,
          20,
          20,
          10,
          0,
          0,
          0
        ],
        [
          99,
          119,
          15,
          10,
          15,
          25,
          30,
          21,
          -20,
          21,
          80,
          0,
          80,
          0,
          60,
          0,
          20,
          20,
          10,
          0,
          0,
          0
        ],
        [
          99,
          119,
          15,
          10,
          15,
          25,
          30,
          21,
          -20,
          21,
          80,
          0,
          80,
          0,
          60,
          0,
          20,
          20,
          10,
          0,
          0,
          0
        ],
        [
          99,
          119,
          15,
          10,
          15,
          25,
          30,
          21,
          -20,
          21,
          80,
          0,
          80,
          0,
          60,
          0,
          20,
          20,
          10,
          0,
          0,
          0
        ],
        [
          99,
          119,
          15,
          10,
          15,
          25,
          30,
          21,
          -20,
          21,
          80,
          0,
          80,
          0,
          60,
          0,
          20,
          20,
          10,
          0,
          0,
          0
        ],
        [
          99,
          119,
          15,
          10,
          15,
          25,
          30,
          21,
          -20,
          21,
          80,
          0,
          80,
          0,
          60,
          0,
          20,
          20,
          10,
          0,
          0,
          0
        ],
        [
          99,
          119,
          15,
          10,
          15,
          25,
          30,
          21,
          -20,
          21,
          80,
          0,
          80,
          0,
          60,
          0,
          20,
          20,
          10,
          0,
          0,
          0
        ],
        [
          99,
          119,
          15,
          10,
          15,
          25,
          30,
          21,
          -20,
          21,
          80,
          0,
          80,
          0,
          60,
          0,
          20,
          20,
          10,
          0,
          0,
          0
        ],
        [
          99,
          119,
          15,
          10,
          15,
          25,
          30,
          21,
          -20,
          21,
          80,
          0,
          80,
          0,
          60,
          0,
          20,
          20,
          10,
          0,
          0,
          0
        ],
        [
          99,
          119,
          15,
          10,
          15,
          25,
          30,
          21,
          -20,
          21,
          80,
          0,
          80,
          0,
          60,
          0,
          20,
          20,
          10,
          0,
          0,
          0
        ],
        [
          99,
          119,
          15,
          10,
          15,
          25,
          30,
          21,
          -20,
          21,
          80,
          0,
          80,
          0,
          60,
          0,
          20,
          20,
          10,
          0,
          0,
          0
        ],
        [
          99,
          119,
          15,
          10,
          15,
          25,
          30,
          21,
          -20,
          21,
          80,
          0,
          80,
          0,
          60,
          0,
          20,
          20,
          10,
          0,
          0,
          0
        ],
        [
          99,
          119,
          15,
          10,
          15,
          25,
          30,
          21,
          -20,
          21,
          80,
          0,
          80,
          0,
          60,
          0,
          20,
          20,
          10,
          0,
          0,
          0
        ],
        [
          99,
          119,
          15,
          10,
          15,
          25,
          30,
          21,
          -20,
          21,
          80,
          0,
          80,
          0,
          60,
          0,
          20,
          20,
          10,
          0,
          0,
          0
        ],
        [
          99,
          119,
          15,
          10,
          15,
          25,
          30,
          21,
          -20,
          21,
          80,
          0,
          80,
          0,
          60,
          0,
          20,
          20,
          10,
          0,
          0,
          0
        ],
        [
          99,
          119,
          15,
          10,
          15,
          25,
          30,
          21,
          -20,
          21,
          80,
          0,
          80,
          0,
          60,
          0,
          20,
          20,
          10,
          0,
          0,
          0
        ],
        [
          99,
          119,
          15,
          10,
          15,
          25,
          30,
          21,
          -20,
          21,
          80,
          0,
          80,
          0,
          60,
          0,
          20,
          20,
          10,
          0,
          0,
          0
        ],
        [
          99,
          119,
          15,
          10,
          15,
          25,
          30,
          21,
          -20,
          21,
          80,
          0,
          80,
          0,
          60,
          0,
          20,
          20,
          10,
          0,
          0,
          0
        ],
        [
          99,
          119,
          15,
          10,
          15,
          25,
          30,
          21,
          -20,
          21,
          80,
          0,
          80,
          0,
          60,
          0,
          20,
          20,
          10,
          0,
          0,
          0
        ],
        [
          99,
          119,
          15,
          10,
          15,
          25,
          30,
          21,
          -20,
          21,
          80,
          0,
          80,
          0,
          60,
          0,
          20,
          20,
          10,
          0,
          0,
          0
        ],
        [
          99,
          119,
          15,
          10,
          15,
          25,
          30,
          21,
          -20,
          21,
          80,
          0,
          80,
          0,
          60,
          0,
          20,
          20,
          10,
          0,
          0,
          0
        ],
        [
          99,
          119,
          15,
          10,
          15,
          25,
          30,
          21,
          -20,
          21,
          80,
          0,
          80,
          0,
          60,
          0,
          20,
          20,
          10,
          0,
          0,
          0
        ],
        [
          99,
          119,
          15,
          10,
          15,
          25,
          30,
          21,
          -20,
          21,
          80,
          0,
          80,
          0,
          60,
          0,
          20,
          20,
          10,
          0,
          0,
          0
        ],
        [
          99,
          119,
          15,
          10,
          15,
          25,
          30,
          21,
          -20,
          21,
          80,
          0,
          80,
          0,
          60,
          0,
          20,
          20,
          10,
          0,
          0,
          0
        ],
        [
          99,
          119,
          15,
          10,
          15,
          25,
          30,
          21,
          -20,
          21,
          80,
          0,
          80,
          0,
          60,
          0,
          20,
          20,
          10,
          0,
          0,
          0
        ],
        [
          99,
          119,
          15,
          10,
          15,
          25,
          30,
          21,
          -20,
          21,
          80,
          0,
          80,
          0,
          60,
          0,
          20,
          20,
          10,
          0,
          0,
          0
        ],
        [
          99,
          119,
          15,
          10,
          15,
          25,
          30,
          21,
          -20,
          21,
          80,
          0,
          80,
          0,
          60,
          0,
          20,
          20,
          10,
          0,
          0,
          0
        ],
        [
          99,
          119,
          15,
          10,
          15,
          25,
          30,
          21,
          -20,
          21,
          80,
          0,
          80,
          0,
          60,
          0,
          20,
          20,
          10,
          0,
          0,
          0
        ],
        [
          99,
          119,
          15,
          10,
          15,
          25,
          30,
          21,
          -20,
          21,
          80,
          0,
          80,
          0,
          60,
          0,
          20,
          20,
          10,
          0,
          0,
          0
        ]
      ]
    },
    {
      "id": 5,
      "hotelId": 1,
      "month": 2,
      "year": 2020,
      "cycle": [
        [
          99,
          119,
          15,
          10,
          15,
          25,
          30,
          21,
          -20,
          21,
          80,
          0,
          80,
          0,
          60,
          0,
          20,
          20,
          10,
          0,
          0,
          0
        ],
        [
          99,
          119,
          15,
          10,
          15,
          25,
          30,
          21,
          -20,
          21,
          80,
          0,
          80,
          0,
          60,
          0,
          20,
          20,
          10,
          0,
          0,
          0
        ],
        [
          99,
          119,
          15,
          10,
          15,
          25,
          30,
          21,
          -20,
          21,
          80,
          0,
          80,
          0,
          60,
          0,
          20,
          20,
          10,
          0,
          0,
          0
        ],
        [
          99,
          119,
          15,
          10,
          15,
          25,
          30,
          21,
          -20,
          21,
          80,
          0,
          80,
          0,
          60,
          0,
          20,
          20,
          10,
          0,
          0,
          0
        ],
        [
          99,
          119,
          15,
          10,
          15,
          25,
          30,
          21,
          -20,
          21,
          80,
          0,
          80,
          0,
          60,
          0,
          20,
          20,
          10,
          0,
          0,
          0
        ],
        [
          99,
          119,
          15,
          10,
          15,
          25,
          30,
          21,
          -20,
          21,
          80,
          0,
          80,
          0,
          60,
          0,
          20,
          20,
          10,
          0,
          0,
          0
        ],
        [
          99,
          119,
          15,
          10,
          15,
          25,
          30,
          21,
          -20,
          21,
          80,
          0,
          80,
          0,
          60,
          0,
          20,
          20,
          10,
          0,
          0,
          0
        ],
        [
          99,
          119,
          15,
          10,
          15,
          25,
          30,
          21,
          -20,
          21,
          80,
          0,
          80,
          0,
          60,
          0,
          20,
          20,
          10,
          0,
          0,
          0
        ],
        [
          99,
          119,
          15,
          10,
          15,
          25,
          30,
          21,
          -20,
          21,
          80,
          0,
          80,
          0,
          60,
          0,
          20,
          20,
          10,
          0,
          0,
          0
        ],
        [
          99,
          119,
          15,
          10,
          15,
          25,
          30,
          21,
          -20,
          21,
          80,
          0,
          80,
          0,
          60,
          0,
          20,
          20,
          10,
          0,
          0,
          0
        ],
        [
          99,
          119,
          15,
          10,
          15,
          25,
          30,
          21,
          -20,
          21,
          80,
          0,
          80,
          0,
          60,
          0,
          20,
          20,
          10,
          0,
          0,
          0
        ],
        [
          99,
          119,
          15,
          10,
          15,
          25,
          30,
          21,
          -20,
          21,
          80,
          0,
          80,
          0,
          60,
          0,
          20,
          20,
          10,
          0,
          0,
          0
        ],
        [
          99,
          119,
          15,
          10,
          15,
          25,
          30,
          21,
          -20,
          21,
          80,
          0,
          80,
          0,
          60,
          0,
          20,
          20,
          10,
          0,
          0,
          0
        ],
        [
          99,
          119,
          15,
          10,
          15,
          25,
          30,
          21,
          -20,
          21,
          80,
          0,
          80,
          0,
          60,
          0,
          20,
          20,
          10,
          0,
          0,
          0
        ],
        [
          99,
          119,
          15,
          10,
          15,
          25,
          30,
          21,
          -20,
          21,
          80,
          0,
          80,
          0,
          60,
          0,
          20,
          20,
          10,
          0,
          0,
          0
        ],
        [
          99,
          119,
          15,
          10,
          15,
          25,
          30,
          21,
          -20,
          21,
          80,
          0,
          80,
          0,
          60,
          0,
          20,
          20,
          10,
          0,
          0,
          0
        ],
        [
          99,
          119,
          15,
          10,
          15,
          25,
          30,
          21,
          -20,
          21,
          80,
          0,
          80,
          0,
          60,
          0,
          20,
          20,
          10,
          0,
          0,
          0
        ],
        [
          99,
          119,
          15,
          10,
          15,
          25,
          30,
          21,
          -20,
          21,
          80,
          0,
          80,
          0,
          60,
          0,
          20,
          20,
          10,
          0,
          0,
          0
        ],
        [
          99,
          119,
          15,
          10,
          15,
          25,
          30,
          21,
          -20,
          21,
          80,
          0,
          80,
          0,
          60,
          0,
          20,
          20,
          10,
          0,
          0,
          0
        ],
        [
          99,
          119,
          15,
          10,
          15,
          25,
          30,
          21,
          -20,
          21,
          80,
          0,
          80,
          0,
          60,
          0,
          20,
          20,
          10,
          0,
          0,
          0
        ],
        [
          99,
          119,
          15,
          10,
          15,
          25,
          30,
          21,
          -20,
          21,
          80,
          0,
          80,
          0,
          60,
          0,
          20,
          20,
          10,
          0,
          0,
          0
        ],
        [
          99,
          119,
          15,
          10,
          15,
          25,
          30,
          21,
          -20,
          21,
          80,
          0,
          80,
          0,
          60,
          0,
          20,
          20,
          10,
          0,
          0,
          0
        ],
        [
          99,
          119,
          15,
          10,
          15,
          25,
          30,
          21,
          -20,
          21,
          80,
          0,
          80,
          0,
          60,
          0,
          20,
          20,
          10,
          0,
          0,
          0
        ],
        [
          99,
          119,
          15,
          10,
          15,
          25,
          30,
          21,
          -20,
          21,
          80,
          0,
          80,
          0,
          60,
          0,
          20,
          20,
          10,
          0,
          0,
          0
        ],
        [
          99,
          119,
          15,
          10,
          15,
          25,
          30,
          21,
          -20,
          21,
          80,
          0,
          80,
          0,
          60,
          0,
          20,
          20,
          10,
          0,
          0,
          0
        ],
        [
          99,
          119,
          15,
          10,
          15,
          25,
          30,
          21,
          -20,
          21,
          80,
          0,
          80,
          0,
          60,
          0,
          20,
          20,
          10,
          0,
          0,
          0
        ],
        [
          99,
          119,
          15,
          10,
          15,
          25,
          30,
          21,
          -20,
          21,
          80,
          0,
          80,
          0,
          60,
          0,
          20,
          20,
          10,
          0,
          0,
          0
        ],
        [
          99,
          119,
          15,
          10,
          15,
          25,
          30,
          21,
          -20,
          21,
          80,
          0,
          80,
          0,
          60,
          0,
          20,
          20,
          10,
          0,
          0,
          0
        ],
        [
          99,
          119,
          15,
          10,
          15,
          25,
          30,
          21,
          -20,
          21,
          80,
          0,
          80,
          0,
          60,
          0,
          20,
          20,
          10,
          0,
          0,
          0
        ],
        [
          99,
          119,
          15,
          10,
          15,
          25,
          30,
          21,
          -20,
          21,
          80,
          0,
          80,
          0,
          60,
          0,
          20,
          20,
          10,
          0,
          0,
          0
        ]
      ]
    },
    {
      "id": 6,
      "hotelId": 1,
      "month": 3,
      "year": 2020,
      "cycle": [
        [
          99,
          119,
          15,
          10,
          15,
          25,
          30,
          21,
          -20,
          21,
          80,
          0,
          80,
          0,
          60,
          0,
          20,
          20,
          10,
          0,
          0,
          0
        ],
        [
          99,
          119,
          15,
          10,
          15,
          25,
          30,
          21,
          -20,
          21,
          80,
          0,
          80,
          0,
          60,
          0,
          20,
          20,
          10,
          0,
          0,
          0
        ],
        [
          99,
          119,
          15,
          10,
          15,
          25,
          30,
          21,
          -20,
          21,
          80,
          0,
          80,
          0,
          60,
          0,
          20,
          20,
          10,
          0,
          0,
          0
        ],
        [
          99,
          119,
          15,
          10,
          15,
          25,
          30,
          21,
          -20,
          21,
          80,
          0,
          80,
          0,
          60,
          0,
          20,
          20,
          10,
          0,
          0,
          0
        ],
        [
          99,
          119,
          15,
          10,
          15,
          25,
          30,
          21,
          -20,
          21,
          80,
          0,
          80,
          0,
          60,
          0,
          20,
          20,
          10,
          0,
          0,
          0
        ],
        [
          99,
          119,
          15,
          10,
          15,
          25,
          30,
          21,
          -20,
          21,
          80,
          0,
          80,
          0,
          60,
          0,
          20,
          20,
          10,
          0,
          0,
          0
        ],
        [
          99,
          119,
          15,
          10,
          15,
          25,
          30,
          21,
          -20,
          21,
          80,
          0,
          80,
          0,
          60,
          0,
          20,
          20,
          10,
          0,
          0,
          0
        ],
        [
          99,
          119,
          15,
          10,
          15,
          25,
          30,
          21,
          -20,
          21,
          80,
          0,
          80,
          0,
          60,
          0,
          20,
          20,
          10,
          0,
          0,
          0
        ],
        [
          99,
          119,
          15,
          10,
          15,
          25,
          30,
          21,
          -20,
          21,
          80,
          0,
          80,
          0,
          60,
          0,
          20,
          20,
          10,
          0,
          0,
          0
        ],
        [
          99,
          119,
          15,
          10,
          15,
          25,
          30,
          21,
          -20,
          21,
          80,
          0,
          80,
          0,
          60,
          0,
          20,
          20,
          10,
          0,
          0,
          0
        ],
        [
          99,
          119,
          15,
          10,
          15,
          25,
          30,
          21,
          -20,
          21,
          80,
          0,
          80,
          0,
          60,
          0,
          20,
          20,
          10,
          0,
          0,
          0
        ],
        [
          99,
          119,
          15,
          10,
          15,
          25,
          30,
          21,
          -20,
          21,
          80,
          0,
          80,
          0,
          60,
          0,
          20,
          20,
          10,
          0,
          0,
          0
        ],
        [
          99,
          119,
          15,
          10,
          15,
          25,
          30,
          21,
          -20,
          21,
          80,
          0,
          80,
          0,
          60,
          0,
          20,
          20,
          10,
          0,
          0,
          0
        ],
        [
          99,
          119,
          15,
          10,
          15,
          25,
          30,
          21,
          -20,
          21,
          80,
          0,
          80,
          0,
          60,
          0,
          20,
          20,
          10,
          0,
          0,
          0
        ],
        [
          99,
          119,
          15,
          10,
          15,
          25,
          30,
          21,
          -20,
          21,
          80,
          0,
          80,
          0,
          60,
          0,
          20,
          20,
          10,
          0,
          0,
          0
        ],
        [
          99,
          119,
          15,
          10,
          15,
          25,
          30,
          21,
          -20,
          21,
          80,
          0,
          80,
          0,
          60,
          0,
          20,
          20,
          10,
          0,
          0,
          0
        ],
        [
          99,
          119,
          15,
          10,
          15,
          25,
          30,
          21,
          -20,
          21,
          80,
          0,
          80,
          0,
          60,
          0,
          20,
          20,
          10,
          0,
          0,
          0
        ],
        [
          99,
          119,
          15,
          10,
          15,
          25,
          30,
          21,
          -20,
          21,
          80,
          0,
          80,
          0,
          60,
          0,
          20,
          20,
          10,
          0,
          0,
          0
        ],
        [
          99,
          119,
          15,
          10,
          15,
          25,
          30,
          21,
          -20,
          21,
          80,
          0,
          80,
          0,
          60,
          0,
          20,
          20,
          10,
          0,
          0,
          0
        ],
        [
          99,
          119,
          15,
          10,
          15,
          25,
          30,
          21,
          -20,
          21,
          80,
          0,
          80,
          0,
          60,
          0,
          20,
          20,
          10,
          0,
          0,
          0
        ],
        [
          99,
          119,
          15,
          10,
          15,
          25,
          30,
          21,
          -20,
          21,
          80,
          0,
          80,
          0,
          60,
          0,
          20,
          20,
          10,
          0,
          0,
          0
        ],
        [
          99,
          119,
          15,
          10,
          15,
          25,
          30,
          21,
          -20,
          21,
          80,
          0,
          80,
          0,
          60,
          0,
          20,
          20,
          10,
          0,
          0,
          0
        ],
        [
          99,
          119,
          15,
          10,
          15,
          25,
          30,
          21,
          -20,
          21,
          80,
          0,
          80,
          0,
          60,
          0,
          20,
          20,
          10,
          0,
          0,
          0
        ],
        [
          99,
          119,
          15,
          10,
          15,
          25,
          30,
          21,
          -20,
          21,
          80,
          0,
          80,
          0,
          60,
          0,
          20,
          20,
          10,
          0,
          0,
          0
        ],
        [
          99,
          119,
          15,
          10,
          15,
          25,
          30,
          21,
          -20,
          21,
          80,
          0,
          80,
          0,
          60,
          0,
          20,
          20,
          10,
          0,
          0,
          0
        ],
        [
          99,
          119,
          15,
          10,
          15,
          25,
          30,
          21,
          -20,
          21,
          80,
          0,
          80,
          0,
          60,
          0,
          20,
          20,
          10,
          0,
          0,
          0
        ],
        [
          99,
          119,
          15,
          10,
          15,
          25,
          30,
          21,
          -20,
          21,
          80,
          0,
          80,
          0,
          60,
          0,
          20,
          20,
          10,
          0,
          0,
          0
        ],
        [
          99,
          119,
          15,
          10,
          15,
          25,
          30,
          21,
          -20,
          21,
          80,
          0,
          80,
          0,
          60,
          0,
          20,
          20,
          10,
          0,
          0,
          0
        ],
        [
          99,
          119,
          15,
          10,
          15,
          25,
          30,
          21,
          -20,
          21,
          80,
          0,
          80,
          0,
          60,
          0,
          20,
          20,
          10,
          0,
          0,
          0
        ],
        [
          99,
          119,
          15,
          10,
          15,
          25,
          30,
          21,
          -20,
          21,
          80,
          0,
          80,
          0,
          60,
          0,
          20,
          20,
          10,
          0,
          0,
          0
        ]
      ]
    },
    {
      "hotelId": 0,
      "month": 4,
      "year": 2020,
      "cycle": [
        [
          99,
          119,
          15,
          10,
          15,
          25,
          30,
          21,
          -20,
          21,
          70,
          10,
          80,
          0,
          60,
          0,
          20,
          20,
          10,
          0,
          0,
          0
        ],
        [
          99,
          119,
          15,
          10,
          15,
          25,
          30,
          21,
          -20,
          21,
          80,
          0,
          80,
          0,
          60,
          0,
          20,
          20,
          10,
          0,
          0,
          0
        ],
        [
          99,
          119,
          15,
          10,
          15,
          25,
          30,
          21,
          -20,
          21,
          80,
          0,
          80,
          0,
          60,
          0,
          20,
          20,
          10,
          0,
          0,
          0
        ],
        [
          99,
          119,
          15,
          10,
          15,
          25,
          30,
          21,
          -20,
          21,
          80,
          0,
          80,
          0,
          60,
          0,
          20,
          20,
          10,
          0,
          0,
          0
        ],
        [
          99,
          119,
          15,
          10,
          15,
          25,
          30,
          21,
          -20,
          21,
          80,
          0,
          80,
          0,
          60,
          0,
          20,
          20,
          10,
          0,
          0,
          0
        ],
        [
          99,
          119,
          15,
          10,
          15,
          25,
          30,
          21,
          -20,
          21,
          80,
          0,
          80,
          0,
          60,
          0,
          20,
          20,
          10,
          0,
          0,
          0
        ],
        [
          99,
          119,
          15,
          10,
          15,
          25,
          30,
          21,
          -20,
          21,
          80,
          0,
          80,
          0,
          60,
          0,
          20,
          20,
          10,
          0,
          0,
          0
        ],
        [
          99,
          119,
          15,
          10,
          15,
          25,
          30,
          21,
          -20,
          21,
          80,
          0,
          80,
          0,
          60,
          0,
          20,
          20,
          10,
          0,
          0,
          0
        ],
        [
          99,
          119,
          15,
          10,
          15,
          25,
          30,
          21,
          -20,
          21,
          80,
          0,
          80,
          0,
          60,
          0,
          20,
          20,
          10,
          0,
          0,
          0
        ],
        [
          99,
          119,
          15,
          10,
          15,
          25,
          30,
          21,
          -20,
          21,
          80,
          0,
          80,
          0,
          60,
          0,
          20,
          20,
          10,
          0,
          0,
          0
        ],
        [
          99,
          119,
          15,
          10,
          15,
          25,
          30,
          21,
          -20,
          21,
          80,
          0,
          80,
          0,
          60,
          0,
          20,
          20,
          10,
          0,
          0,
          0
        ],
        [
          99,
          119,
          15,
          10,
          15,
          25,
          30,
          21,
          -20,
          21,
          80,
          0,
          80,
          0,
          60,
          0,
          20,
          20,
          10,
          0,
          0,
          0
        ],
        [
          99,
          119,
          15,
          10,
          15,
          25,
          30,
          21,
          -20,
          21,
          80,
          0,
          80,
          0,
          60,
          0,
          20,
          20,
          10,
          0,
          0,
          0
        ],
        [
          99,
          119,
          15,
          10,
          15,
          25,
          30,
          21,
          -20,
          21,
          80,
          0,
          80,
          0,
          60,
          0,
          20,
          20,
          10,
          0,
          0,
          0
        ],
        [
          99,
          119,
          15,
          10,
          15,
          25,
          30,
          21,
          -20,
          21,
          80,
          0,
          80,
          0,
          60,
          0,
          20,
          20,
          10,
          0,
          0,
          0
        ],
        [
          99,
          119,
          15,
          10,
          15,
          25,
          30,
          21,
          -20,
          21,
          80,
          0,
          80,
          0,
          60,
          0,
          20,
          20,
          10,
          0,
          0,
          0
        ],
        [
          99,
          119,
          15,
          10,
          15,
          25,
          30,
          21,
          -20,
          21,
          80,
          0,
          80,
          0,
          60,
          0,
          20,
          20,
          10,
          0,
          0,
          0
        ],
        [
          99,
          119,
          15,
          10,
          15,
          25,
          30,
          21,
          -20,
          21,
          80,
          0,
          80,
          0,
          60,
          0,
          20,
          20,
          10,
          0,
          0,
          0
        ],
        [
          99,
          119,
          15,
          10,
          15,
          25,
          30,
          21,
          -20,
          21,
          80,
          0,
          80,
          0,
          60,
          0,
          20,
          20,
          10,
          0,
          0,
          0
        ],
        [
          99,
          119,
          15,
          10,
          15,
          25,
          30,
          21,
          -20,
          21,
          80,
          0,
          80,
          0,
          60,
          0,
          20,
          20,
          10,
          0,
          0,
          0
        ],
        [
          99,
          119,
          15,
          10,
          15,
          25,
          30,
          21,
          -20,
          21,
          80,
          0,
          80,
          0,
          60,
          0,
          20,
          20,
          10,
          0,
          0,
          0
        ],
        [
          99,
          119,
          15,
          10,
          15,
          25,
          30,
          21,
          -20,
          21,
          80,
          0,
          80,
          0,
          60,
          0,
          20,
          20,
          10,
          0,
          0,
          0
        ],
        [
          99,
          119,
          15,
          10,
          15,
          25,
          30,
          21,
          -20,
          21,
          80,
          0,
          80,
          0,
          60,
          0,
          20,
          20,
          10,
          0,
          0,
          0
        ],
        [
          99,
          119,
          15,
          10,
          15,
          25,
          30,
          21,
          -20,
          21,
          80,
          0,
          80,
          0,
          60,
          0,
          20,
          20,
          10,
          0,
          0,
          0
        ],
        [
          99,
          119,
          15,
          10,
          15,
          25,
          30,
          21,
          -20,
          21,
          80,
          0,
          80,
          0,
          60,
          0,
          20,
          20,
          10,
          0,
          0,
          0
        ],
        [
          99,
          119,
          15,
          10,
          15,
          25,
          30,
          21,
          -20,
          21,
          80,
          0,
          80,
          0,
          60,
          0,
          20,
          20,
          10,
          0,
          0,
          0
        ],
        [
          99,
          119,
          15,
          10,
          15,
          25,
          30,
          21,
          -20,
          21,
          80,
          0,
          80,
          0,
          60,
          0,
          20,
          20,
          10,
          0,
          0,
          0
        ],
        [
          99,
          119,
          15,
          10,
          15,
          25,
          30,
          21,
          -20,
          21,
          80,
          0,
          80,
          0,
          60,
          0,
          20,
          20,
          10,
          0,
          0,
          0
        ],
        [
          99,
          119,
          15,
          10,
          15,
          25,
          30,
          21,
          -20,
          21,
          80,
          0,
          80,
          0,
          60,
          0,
          20,
          20,
          10,
          0,
          0,
          0
        ],
        [
          99,
          119,
          15,
          10,
          15,
          25,
          30,
          21,
          -20,
          21,
          80,
          0,
          80,
          0,
          60,
          0,
          20,
          20,
          10,
          0,
          0,
          0
        ]
      ]
    }
  ],
  "cycleCount": 8,
  "cycleLastId": 7
}