{
  "config": [
    {
      "cHRASHous": 0.5,
      "cHRAS": 0.5,
      "cHRFB": 0.5,
      "chrfbBreakKitchen": 0.5,
      "chrfbBreakRest": 0.5,
      "chrfbBreak": 0.5,
      "chrfbGroup": 0.5,
      "cpqhr": 0.5,
      "cpqmq": 0.5,
      "cpqeq": 0.5,
      "chrfbGroupKitchen": 0.5,
      "chrfbGroupRest": 0.5,
      "cMQAS": 0.5,
      "cMQFB": 0.5,
      "coaeq": 0.4,
      "coapp": 0.3,
      "coabl": 0.3,
      "brandLevel": 0.8,
      "juniorReceptionWage": 13000,
      "seniorReceptionWage": 24000,
      "juniorRoomServiceWage": 111111,
      "seniorRoomServiceWage": 11111,
      "juniorBreakfastChefWage": 2222222,
      "seniorBreakfastChefWage": 333333,
      "helpBreakfastWage": 4444444,
      "juniorBreakfastWaiterWage": 555555,
      "seniorBreakfastWaiterWage": 6666666,
      "juniorDinnerChefWage": 777777,
      "seniorDinnerChefWage": 55555,
      "helpDinnerWage": 4444444,
      "juniorDinnerWaiterWage": 33333,
      "seniorDinnerWaiterWage": 2222222,
      "roomQualityStandardCost": 33333,
      "roomQualityPremiumCost": 5555,
      "foodQualityEconomyBreakfastCost": 2222222,
      "foodQualityEconomyDinnerCost": 333333,
      "foodQualityEconomyAlaCarteCost": 4444444,
      "foodQualityEconomyBarCost": 555555,
      "foodQualityStandardBreakfastCost": 6666666,
      "foodQualityStandardDinnerCost": 777777,
      "foodQualityStandardAlaCarteCost": 55555,
      "foodQualityStandardBarCost": 4444444,
      "foodQualityPremiumBreakfastCost": 33333,
      "foodQualityPremiumDinnerCost": 2222222,
      "foodQualityPremiumAlaCarteCost": 33333,
      "foodQualityPremiumBarCost": 5554444,
      "cHRASRec": 0.5
    }
  ],
  "configCount": 1
}